<?xml version="1.0" encoding="UTF-8"?>
<svg width="206px" height="206px" viewBox="0 0 206 206" version="1.1" xmlns="http://www.w3.org/2000/svg" xmlns:xlink="http://www.w3.org/1999/xlink">
    <!-- Generator: Sketch 42 (36781) - http://www.bohemiancoding.com/sketch -->
    <title>Page 1</title>
    <desc>Created with Sketch.</desc>
    <defs>
        <filter x="-50%" y="-50%" width="200%" height="200%" filterUnits="objectBoundingBox" id="filter-1">
            <feOffset dx="0" dy="2" in="SourceAlpha" result="shadowOffsetOuter1"></feOffset>
            <feGaussianBlur stdDeviation="2" in="shadowOffsetOuter1" result="shadowBlurOuter1"></feGaussianBlur>
            <feColorMatrix values="0 0 0 0 0   0 0 0 0 0   0 0 0 0 0  0 0 0 0.2 0" type="matrix" in="shadowBlurOuter1" result="shadowMatrixOuter1"></feColorMatrix>
            <feMerge>
                <feMergeNode in="shadowMatrixOuter1"></feMergeNode>
                <feMergeNode in="SourceGraphic"></feMergeNode>
            </feMerge>
        </filter>
    </defs>
    <g id="Page-1" stroke="none" stroke-width="1" fill="none" fill-rule="evenodd">
        <g id="Teaching.com-Website" transform="translate(-958.000000, -5046.000000)">
            <g id="Flashcards.com-Module" transform="translate(31.000000, 4938.000000)">
                <g id="Hero-Image---Flashcards">
                    <g id="Group-8" transform="translate(437.000000, 110.000000)">
                        <g id="Page-1" filter="url(#filter-1)" transform="translate(494.000000, 0.000000)">
                            <path d="M197.244275,99 C197.244275,153.258046 153.258046,197.244275 99,197.244275 C44.7419542,197.244275 0.755725191,153.258046 0.755725191,99 C0.755725191,44.7419542 44.7419542,0.755725191 99,0.755725191 C153.258046,0.755725191 197.244275,44.7419542 197.244275,99" id="Fill-1" fill="#FFFFFF"></path>
                            <path d="M197.244275,99 C197.244275,153.258046 153.258046,197.244275 99,197.244275 C44.7419542,197.244275 0.755725191,153.258046 0.755725191,99 C0.755725191,44.7419542 44.7419542,0.755725191 99,0.755725191 C153.258046,0.755725191 197.244275,44.7419542 197.244275,99 Z" id="Stroke-3" stroke="#F0F0F0"></path>
                            <path d="M182.129771,99 C182.129771,144.910305 144.911817,182.129771 99,182.129771 C53.0881832,182.129771 15.870229,144.910305 15.870229,99 C15.870229,53.0896947 53.0881832,15.870229 99,15.870229 C144.911817,15.870229 182.129771,53.0896947 182.129771,99 Z" id="Stroke-5" stroke="#F0F0F0" stroke-width="5"></path>
                            <path d="M99,182.129771 C53.0881832,182.129771 15.870229,144.910305 15.870229,99 C15.870229,53.0896947 53.0881832,15.870229 99,15.870229" id="Stroke-7" stroke="#29ABE2" stroke-width="5" stroke-linecap="round" stroke-linejoin="round"></path>
                            <path d="M15.870229,99 C15.870229,53.0896947 53.0881832,15.870229 99,15.870229" id="Stroke-9" stroke="#4FD4AE" stroke-width="5" stroke-linecap="round" stroke-linejoin="round"></path>
                            <path d="M40.2187878,40.2180321 C55.2622534,25.1745664 76.0446962,15.8700779 99.0006046,15.8700779" id="Stroke-11" stroke="#FBB03B" stroke-width="5" stroke-linecap="round" stroke-linejoin="round"></path>
                            <path d="M82.247084,17.5588214 C87.6580763,16.4524397 93.2610229,15.8705313 99,15.8705313" id="Stroke-13" stroke="#F15A24" stroke-width="5" stroke-linecap="round" stroke-linejoin="round"></path>
                            <path d="M51.7789649,85.0006443 C51.6459573,84.4021099 51.4449344,83.0720336 51.4449344,82.0079725 C51.4449344,74.425026 57.165774,67.5736214 67.2093618,67.5736214 C76.8539267,67.5736214 82.7742779,73.9594992 82.7742779,81.4744305 C82.7742779,87.0622626 79.7135908,91.5845221 74.3932855,94.8447206 L66.0787969,99.8990107 C64.4162015,100.964583 63.0196214,102.161652 62.3545832,103.824247 L83.0402931,103.824247 L83.0402931,111.738202 L51.1139267,111.738202 C51.1804305,104.156766 53.5730565,97.9704 61.2905221,93.3136214 L68.4064305,89.0573771 C72.0656519,86.8627511 73.5287359,84.6016214 73.5287359,81.6074382 C73.5287359,78.4817588 71.3341099,75.6885985 67.0098504,75.6885985 C62.421087,75.6885985 60.1599573,78.8142779 60.1599573,82.8725221 C60.1599573,83.6705679 60.2929649,84.5351176 60.4924763,85.2666595 L51.7789649,85.0006443 Z" id="Fill-15" fill="#000000"></path>
                            <path d="M95.6051313,97.7048382 C95.8046427,101.695067 98.8638183,104.953754 103.452582,104.953754 C107.57733,104.953754 110.902521,102.227098 110.902521,97.9043496 C110.902521,92.9815557 107.244811,90.6539221 103.254582,90.6539221 C100.326902,90.6539221 97.9992687,91.9839985 96.6026885,93.5800901 C95.7381389,93.247571 89.1527496,90.9864412 88.2216962,90.720426 L93.3440015,68.5716321 L117.687421,68.5716321 L117.687421,76.4870977 L99.5968718,76.4870977 L97.4672382,85.998655 C99.329345,84.2680443 102.388521,83.3385023 105.249696,83.3385023 C113.896704,83.3385023 120.015055,88.5258 120.015055,97.771342 C120.015055,105.819815 113.8302,112.802716 103.452582,112.802716 C94.0740321,112.802716 87.556658,106.41835 87.0246275,99.6334489 L95.6051313,97.7048382 Z" id="Fill-17" fill="#000000"></path>
                            <path d="M144.737547,88.716545 C146.076692,88.716545 147.063669,87.6948046 147.063669,86.249858 C147.063669,84.8049115 146.076692,83.8179344 144.737547,83.8179344 C143.434676,83.8179344 142.411424,84.8049115 142.411424,86.249858 C142.411424,87.7310794 143.434676,88.716545 144.737547,88.716545 L144.737547,88.716545 Z M144.737547,80.4700718 C147.910081,80.4700718 150.623134,83.0077969 150.623134,86.249858 C150.623134,89.5281939 147.910081,91.9933695 144.737547,91.9933695 C141.530249,91.9933695 138.888234,89.4571557 138.888234,86.249858 C138.888234,83.0077969 141.565012,80.4700718 144.737547,80.4700718 L144.737547,80.4700718 Z M129.33889,76.5932015 C130.676524,76.5932015 131.665012,75.5729725 131.665012,74.128026 C131.665012,72.6830794 130.676524,71.6961023 129.33889,71.6961023 C128.032997,71.6961023 127.011256,72.6830794 127.011256,74.128026 C127.011256,75.6077359 128.032997,76.5932015 129.33889,76.5932015 L129.33889,76.5932015 Z M126.94173,91.6064382 L143.080997,68.735171 L147.167959,68.735171 L131.030203,91.6064382 L126.94173,91.6064382 Z M129.33889,68.3482397 C132.508402,68.3482397 135.222966,70.8859649 135.222966,74.128026 C135.222966,77.4048504 132.508402,79.8715374 129.33889,79.8715374 C126.130081,79.8715374 123.486554,77.3338122 123.486554,74.128026 C123.486554,70.8859649 126.166356,68.3482397 129.33889,68.3482397 L129.33889,68.3482397 Z" id="Fill-19" fill="#000000"></path>
                            <polygon id="Fill-21" fill="#000000" points="69.2241252 140.456363 69.2241252 129.933646 64.9059115 140.456363 62.4694534 140.456363 58.1512397 130.018287 58.1512397 140.456363 55.3565679 140.456363 55.3565679 125.44615 59.209255 125.44615 63.7194229 136.286272 68.1222779 125.44615 72.1034382 125.44615 72.1034382 140.456363"></polygon>
                            <path d="M81.0899176,136.243044 L81.0899176,135.777518 L78.7396122,136.137243 C78.0201618,136.243044 77.4488336,136.64509 77.4488336,137.449182 C77.4488336,138.064342 77.8932,138.656831 78.8030931,138.656831 C79.9880702,138.656831 81.0899176,138.085502 81.0899176,136.243044 M77.7450779,134.464067 L80.3054748,134.083182 C80.8994748,133.99854 81.0899176,133.702296 81.0899176,133.342571 C81.0899176,132.60196 80.5185893,131.988311 79.3321008,131.988311 C78.1032916,131.988311 77.4261618,132.771243 77.3430321,133.681136 L74.8446046,133.152128 C75.0123756,131.521273 76.5177802,129.722647 79.3109405,129.722647 C82.614971,129.722647 83.8422687,131.584754 83.8422687,133.681136 L83.8422687,138.804953 C83.8422687,139.355121 83.9057496,140.095731 83.9692305,140.456968 L81.3861618,140.456968 C81.3226809,140.180373 81.2803603,139.610556 81.2803603,139.206998 C80.7498412,140.03225 79.7553069,140.753212 78.2106046,140.753212 C75.9872611,140.753212 74.6330015,139.249319 74.6330015,137.619976 C74.6330015,135.756357 76.0084214,134.719502 77.7450779,134.464067" id="Fill-23" fill="#000000"></path>
                            <path d="M88.1969084,137.026882 C88.2603893,137.852134 88.8740382,138.613905 90.1028473,138.613905 C91.0339008,138.613905 91.4782672,138.127218 91.4782672,137.57705 C91.4782672,137.111524 91.1608626,136.730638 90.356771,136.559844 L88.9813511,136.24244 C86.9696107,135.799585 86.0582061,134.591936 86.0582061,133.130363 C86.0582061,131.268256 87.7102214,129.722043 89.9547252,129.722043 C92.9186794,129.722043 93.9132137,131.606821 94.0401756,132.728318 L91.6913817,133.257325 C91.605229,132.643676 91.1608626,131.860745 89.9758855,131.860745 C89.2352748,131.860745 88.6412748,132.305111 88.6412748,132.899111 C88.6412748,133.405447 89.0236718,133.722852 89.595,133.830165 L91.0762214,134.147569 C93.1302824,134.570776 94.1671374,135.819234 94.1671374,137.344287 C94.1671374,139.038623 92.8551985,140.773768 90.1224962,140.773768 C86.990771,140.773768 85.910084,138.740867 85.7831221,137.55589 L88.1969084,137.026882 Z" id="Fill-25" fill="#000000"></path>
                            <path d="M99.900371,130.040052 L101.996753,130.040052 L101.996753,132.538479 L99.900371,132.538479 L99.900371,136.900525 C99.900371,137.810418 100.323577,138.106663 101.127669,138.106663 C101.466234,138.106663 101.847119,138.064342 101.996753,138.022021 L101.996753,140.351166 C101.742829,140.456968 101.23347,140.60509 100.408218,140.60509 C98.3753176,140.60509 97.1041878,139.397441 97.1041878,137.385701 L97.1041878,132.538479 L95.2209206,132.538479 L95.2209206,130.040052 L95.7499282,130.040052 C96.8502641,130.040052 97.3596229,129.31909 97.3596229,128.388037 L97.3596229,126.927976 L99.900371,126.927976 L99.900371,130.040052 Z" id="Fill-27" fill="#000000"></path>
                            <path d="M110.989731,134.062324 C110.948922,133.025469 110.270281,132.009774 108.662098,132.009774 C107.200525,132.009774 106.396434,133.11011 106.332953,134.062324 L110.989731,134.062324 Z M113.615121,137.470644 C113.086113,139.270782 111.435609,140.773163 108.873701,140.773163 C106.015548,140.773163 103.49596,138.720614 103.49596,135.20498 C103.49596,131.882812 105.952067,129.721438 108.619777,129.721438 C111.837655,129.721438 113.763243,131.775499 113.763243,135.12185 C113.763243,135.523896 113.722434,135.947102 113.722434,135.989423 L106.269472,135.989423 C106.332953,137.366354 107.496769,138.360889 108.89335,138.360889 C110.2068,138.360889 110.92625,137.704919 111.266327,136.772354 L113.615121,137.470644 Z" id="Fill-29" fill="#000000"></path>
                            <path d="M122.331504,132.834875 C122.012588,132.771394 121.737504,132.750234 121.48358,132.750234 C120.043168,132.750234 118.79471,133.448524 118.79471,135.693027 L118.79471,140.455608 L115.978878,140.455608 L115.978878,130.040203 L118.710069,130.040203 L118.710069,131.584905 C119.344878,130.209485 120.78529,129.955562 121.674023,129.955562 C121.908298,129.955562 122.118389,129.976722 122.331504,129.997882 L122.331504,132.834875 Z" id="Fill-31" fill="#000000"></path>
                            <path d="M130.921983,134.062324 C130.881174,133.025469 130.202533,132.009774 128.59435,132.009774 C127.132777,132.009774 126.328685,133.11011 126.265205,134.062324 L130.921983,134.062324 Z M133.547373,137.470644 C133.018365,139.270782 131.367861,140.773163 128.805953,140.773163 C125.9478,140.773163 123.428212,138.720614 123.428212,135.20498 C123.428212,131.882812 125.884319,129.721438 128.552029,129.721438 C131.769907,129.721438 133.695495,131.775499 133.695495,135.12185 C133.695495,135.523896 133.654685,135.947102 133.654685,135.989423 L126.201724,135.989423 C126.265205,137.366354 127.429021,138.360889 128.825602,138.360889 C130.139052,138.360889 130.858502,137.704919 131.198579,136.772354 L133.547373,137.470644 Z" id="Fill-33" fill="#000000"></path>
                            <path d="M140.550073,138.190699 C141.988974,138.190699 143.11047,137.090363 143.11047,135.205585 C143.11047,133.341966 141.988974,132.305111 140.550073,132.305111 C139.109661,132.305111 137.967005,133.364638 137.967005,135.226745 C137.967005,137.090363 139.068852,138.190699 140.550073,138.190699 L140.550073,138.190699 Z M145.843173,138.571585 C145.843173,139.269875 145.883982,140.033157 145.927814,140.456363 L143.237432,140.456363 C143.196623,140.24476 143.133142,139.736913 143.133142,139.250226 C142.666104,140.075478 141.608089,140.710287 140.209997,140.710287 C137.246043,140.710287 135.130012,138.381142 135.130012,135.226745 C135.130012,132.17815 137.182562,129.785524 140.126867,129.785524 C141.925493,129.785524 142.773417,130.527646 143.069661,131.076302 L143.069661,125.127234 L145.843173,125.127234 L145.843173,138.571585 Z" id="Fill-35" fill="#000000"></path>
                        </g>
                    </g>
                </g>
            </g>
        </g>
    </g>
</svg>